"area","Linf","K","t0","L2"
"A",201.739871465445,0.0624936749682406,-0.524946478275608,185.71044368525
"B",212.314166127889,0.0574014840115026,-0.609993123042831,191.679072047509
"C.1",186.184190710805,0.0690457182169279,-0.506350697601073,174.825917676677
"C.2",214.385662081153,0.0566944370735399,-0.691410135899859,193.041036880146
"D",207.329368607762,0.0589047721864551,-0.656663689225403,188.424165725783
"E",217.374478751802,0.0534121703778326,-0.696955939403397,192.647155661011
