"area","Linf","K","t0","L2"
"A",220.979563954385,0.0534817826347198,-0.653365232011133,195.854754467496
"B",202.659902626788,0.0607118078571525,-0.565455956584109,185.394113269717
"C.1",197.817771606717,0.0615485163702487,-0.640792302911994,181.60230053173
"C.2",211.13730415516,0.0578237378790851,-0.583402894867971,190.934435616253
"D",207.608886671624,0.0588966879225832,-0.56518835160831,188.569673219669
"E",219.005115789928,0.0552173117036312,-0.557737237226311,195.678246833025
